{
  "swagger": "2.0",
  "info": {
    "version": "",
    "title": "Cats API Core"
  },
  "host": "meowle.qa-fintech.tcsbank.ru",
  "basePath": "/api/likes/",
  "schemes": [
    "https"
  ],
  "paths": {
    "/cats/{catId}/likes": {
      "post": {
        "tags": [
          "Like/Dislike"
        ],
        "summary": "Установить/убрать лайк/дизлайк коту",
        "parameters": [
          {
            "name": "catId",
            "in": "path",
            "description": "ID кота для добавления лайка",
            "required": true,
            "type": "number"
          },
          {
            "name": "json",
            "in": "body",
            "description": "Тело запроса",
            "schema": {
              "type": "object",
              "properties": {
                "like": {
                  "type": "boolean"
                },
                "dislike": {
                  "type": "boolean"
                }
              }
            },
            "required": true
          }
        ],
        "responses": {
          "200": {
            "description": "ok",
            "schema": {
              "$ref": "#/definitions/responseLikeDislike"
            }
          }
        }
      }
    },
    "/cats/{catId}/like": {
      "post": {
        "tags": [
          "Like"
        ],
        "summary": "Добавление лайка коту",
        "parameters": [
          {
            "name": "catId",
            "in": "path",
            "description": "ID кота для добавления лайка",
            "required": true,
            "type": "number"
          }
        ],
        "responses": {
          "200": {
            "description": "ok",
            "schema": {
              "$ref": "#/definitions/responseLikeDislike"
            }
          }
        }
      },
      "delete": {
        "tags": [
          "Like"
        ],
        "summary": "Удаление лайка у кота",
        "parameters": [
          {
            "name": "catId",
            "in": "path",
            "description": "ID кота для удаления лайка",
            "required": true,
            "type": "number"
          }
        ],
        "responses": {
          "200": {
            "description": "ok",
            "schema": {
              "$ref": "#/definitions/responseLikeDislike"
            }
          }
        }
      }
    },
    "/cats/{catId}/dislike": {
      "post": {
        "tags": [
          "Dislike"
        ],
        "summary": "Добавление дизлайка коту",
        "parameters": [
          {
            "name": "catId",
            "in": "path",
            "description": "ID кота для добавления дизлайка",
            "required": true,
            "type": "number"
          }
        ],
        "responses": {
          "200": {
            "description": "ok",
            "schema": {
              "$ref": "#/definitions/responseLikeDislike"
            }
          }
        }
      },
      "delete": {
        "tags": [
          "Dislike"
        ],
        "summary": "Удаление дизлайка у кота",
        "parameters": [
          {
            "name": "catId",
            "in": "path",
            "description": "ID кота для удаления дизлайка",
            "required": true,
            "type": "number"
          }
        ],
        "responses": {
          "200": {
            "description": "ok",
            "schema": {
              "$ref": "#/definitions/responseLikeDislike"
            }
          }
        }
      }
    },
    "/cats/likes-rating": {
      "get": {
        "tags": [
          "Like"
        ],
        "summary": "Получение списка ТОП-10 лайков",
        "produces": [
          "application/json"
        ],
        "responses": {
          "200": {
            "description": "Список имен с лайками",
            "schema": {
              "type": "array",
              "items": {
                "type": "object",
                "properties": {
                  "name": {
                    "type": "string"
                  },
                  "likes": {
                    "type": "number"
                  },
                  "id": {
                    "type": "number"
                  }
                }
              }
            }
          }
        }
      }
    },
    "/cats/dislikes-rating": {
      "get": {
        "tags": [
          "Dislike"
        ],
        "summary": "Получение списка ТОП-10 дизлайков",
        "produces": [
          "application/json"
        ],
        "responses": {
          "200": {
            "description": "список имен с дизлайками",
            "schema": {
              "type": "array",
              "items": {
                "type": "object",
                "properties": {
                  "name": {
                    "type": "string"
                  },
                  "dislikes": {
                    "type": "number"
                  },
                  "id": {
                    "type": "number"
                  }
                }
              }
            }
          }
        }
      }
    },
    "/cats/rating": {
      "get": {
        "tags": [
          "Rating"
        ],
        "summary": "Получение списка ТОП-10 лайков и дизлайков",
        "produces": [
          "application/json"
        ],
        "responses": {
          "200": {
            "description": "список имен с лайками и дизлайками",
            "schema": {
              "type": "array",
              "items": {
                "type": "object",
                "properties": {
                  "name": {
                    "type": "string"
                  },
                  "dislikes": {
                    "type": "number"
                  }
                }
              }
            }
          }
        }
      }
    }
  },
  "definitions": {
    "responseLikeDislike": {
      "type": "object",
      "properties": {
        "id": {
          "type": "number"
        },
        "name": {
          "type": "string"
        },
        "tags": {
          "type": "string"
        },
        "description": {
          "type": "string"
        },
        "gender": {
          "type": "string"
        },
        "likes": {
          "type": "number"
        },
        "dislikes": {
          "type": "number"
        }
      }
    }
  }
}
